Self Made Status and Final Net Worths of Billionaires
…
# Loading data into a tibble named billionaires
billionaires <- read_csv("~/Desktop/Billionaires Statistics Dataset.csv", show_col_types = FALSE)

# Converting the `selfMade` variable into binary to be utilized more efficiently
billionaires$selfMade <- as.integer(as.logical(billionaires$selfMade))

# Mutating the `finalWorth` variable to be divided by 1000 so it can be read easily
billionaires <- billionaires |>
  mutate(finalWorth = finalWorth / 1000) 
billionaires

# A tibble: 2,640 × 35
    rank finalWorth category     personName   age country city  source
   <dbl>      <dbl> <chr>        <chr>      <dbl> <chr>   <chr> <chr> 
 1     1      211   Fashion & R… Bernard A…    74 France  Paris LVMH  
 2     2      180   Automotive   Elon Musk     51 United… Aust… Tesla…
 3     3      114   Technology   Jeff Bezos    59 United… Medi… Amazon
 4     4      107   Technology   Larry Ell…    78 United… Lanai Oracle
 5     5      106   Finance & I… Warren Bu…    92 United… Omaha Berks…
 6     6      104   Technology   Bill Gates    67 United… Medi… Micro…
 7     7       94.5 Media & Ent… Michael B…    81 United… New … Bloom…
 8     8       93   Telecom      Carlos Sl…    83 Mexico  Mexi… Telec…
 9     9       83.4 Diversified  Mukesh Am…    65 India   Mumb… Diver…
10    10       80.7 Technology   Steve Bal…    67 United… Hunt… Micro…
# ℹ 2,630 more rows
# ℹ 27 more variables: industries <chr>, countryOfCitizenship <chr>,
#   organization <chr>, selfMade <int>, status <chr>, gender <chr>,
#   birthDate <chr>, lastName <chr>, firstName <chr>, title <chr>,
#   date <chr>, state <chr>, residenceStateRegion <chr>,
#   birthYear <dbl>, birthMonth <dbl>, birthDay <dbl>,
#   cpi_country <dbl>, cpi_change_country <dbl>, gdp_country <chr>, …
…
